%YAML 1.1
%TAG !u! tag:unity3d.com,2011:
--- !u!1045 &1
EditorBuildSettings:
  m_ObjectHideFlags: 0
  serializedVersion: 2
  m_Scenes:
  - enabled: 1
    path: Assets/Scenes/StartScreen.unity
    guid: c8913bd9be12b3f4db45caa04c44ef5e
  - enabled: 1
    path: Assets/Scenes/Game_Scene.unity
    guid: 6d017a804335e7f4293bf69424730f76
  - enabled: 1
    path: Assets/Scenes/EndScreen.unity
    guid: e76cf30eab4f5c944a1b158866d93d03
  - enabled: 1
    path: Assets/Scenes/Game_Scene_2.unity
    guid: db56481964226c349a5ae125ef5506f8
  m_configObjects: {}
